60160319-mgn ansible_connection=local
60160319-01 ansible_ssh_host=192.168.119.12
60160319-02 ansible_ssh_host=192.168.119.80
60160319-03 ansible_ssh_host=192.168.119.81
60160319-04 ansible_ssh_host=192.168.119.82

[myserver]
60160319-[01:04]

[mydns]
60160319-mgn
60160319-01

[web]
60160319-03
60160319-04

[db]
60160319-02

